G04 #@! TF.GenerationSoftware,KiCad,Pcbnew,(5.1.5-0-10_14)*
G04 #@! TF.CreationDate,2020-05-25T11:32:10+02:00*
G04 #@! TF.ProjectId,BarduinoStepperBoard,42617264-7569-46e6-9f53-746570706572,rev?*
G04 #@! TF.SameCoordinates,Original*
G04 #@! TF.FileFunction,Paste,Top*
G04 #@! TF.FilePolarity,Positive*
%FSLAX46Y46*%
G04 Gerber Fmt 4.6, Leading zero omitted, Abs format (unit mm)*
G04 Created by KiCad (PCBNEW (5.1.5-0-10_14)) date 2020-05-25 11:32:10*
%MOMM*%
%LPD*%
G04 APERTURE LIST*
%ADD10R,1.270000X1.905000*%
%ADD11R,1.198880X0.998220*%
%ADD12R,1.905000X1.270000*%
%ADD13R,5.397500X6.197600*%
%ADD14R,0.998220X1.597660*%
%ADD15C,0.100000*%
%ADD16R,1.270000X2.540000*%
%ADD17R,2.540000X1.270000*%
%ADD18R,0.300000X1.600000*%
G04 APERTURE END LIST*
D10*
X95859000Y-81200000D03*
X99161000Y-81200000D03*
X99161000Y-78050000D03*
X95859000Y-78050000D03*
D11*
X98768700Y-72389360D03*
X98768700Y-69890000D03*
X98768700Y-67390640D03*
D12*
X150680000Y-76641000D03*
X150680000Y-73339000D03*
D13*
X173430000Y-75570000D03*
D14*
X171151620Y-68272580D03*
X175708380Y-68272580D03*
D15*
G36*
X162849504Y-112401204D02*
G01*
X162873773Y-112404804D01*
X162897571Y-112410765D01*
X162920671Y-112419030D01*
X162942849Y-112429520D01*
X162963893Y-112442133D01*
X162983598Y-112456747D01*
X163001777Y-112473223D01*
X163018253Y-112491402D01*
X163032867Y-112511107D01*
X163045480Y-112532151D01*
X163055970Y-112554329D01*
X163064235Y-112577429D01*
X163070196Y-112601227D01*
X163073796Y-112625496D01*
X163075000Y-112650000D01*
X163075000Y-113750000D01*
X163073796Y-113774504D01*
X163070196Y-113798773D01*
X163064235Y-113822571D01*
X163055970Y-113845671D01*
X163045480Y-113867849D01*
X163032867Y-113888893D01*
X163018253Y-113908598D01*
X163001777Y-113926777D01*
X162983598Y-113943253D01*
X162963893Y-113957867D01*
X162942849Y-113970480D01*
X162920671Y-113980970D01*
X162897571Y-113989235D01*
X162873773Y-113995196D01*
X162849504Y-113998796D01*
X162825000Y-114000000D01*
X159400000Y-114000000D01*
X159375496Y-113998796D01*
X159351227Y-113995196D01*
X159327429Y-113989235D01*
X159304329Y-113980970D01*
X159282151Y-113970480D01*
X159261107Y-113957867D01*
X159241402Y-113943253D01*
X159223223Y-113926777D01*
X159206747Y-113908598D01*
X159192133Y-113888893D01*
X159179520Y-113867849D01*
X159169030Y-113845671D01*
X159160765Y-113822571D01*
X159154804Y-113798773D01*
X159151204Y-113774504D01*
X159150000Y-113750000D01*
X159150000Y-112650000D01*
X159151204Y-112625496D01*
X159154804Y-112601227D01*
X159160765Y-112577429D01*
X159169030Y-112554329D01*
X159179520Y-112532151D01*
X159192133Y-112511107D01*
X159206747Y-112491402D01*
X159223223Y-112473223D01*
X159241402Y-112456747D01*
X159261107Y-112442133D01*
X159282151Y-112429520D01*
X159304329Y-112419030D01*
X159327429Y-112410765D01*
X159351227Y-112404804D01*
X159375496Y-112401204D01*
X159400000Y-112400000D01*
X162825000Y-112400000D01*
X162849504Y-112401204D01*
G37*
G36*
X169024504Y-112401204D02*
G01*
X169048773Y-112404804D01*
X169072571Y-112410765D01*
X169095671Y-112419030D01*
X169117849Y-112429520D01*
X169138893Y-112442133D01*
X169158598Y-112456747D01*
X169176777Y-112473223D01*
X169193253Y-112491402D01*
X169207867Y-112511107D01*
X169220480Y-112532151D01*
X169230970Y-112554329D01*
X169239235Y-112577429D01*
X169245196Y-112601227D01*
X169248796Y-112625496D01*
X169250000Y-112650000D01*
X169250000Y-113750000D01*
X169248796Y-113774504D01*
X169245196Y-113798773D01*
X169239235Y-113822571D01*
X169230970Y-113845671D01*
X169220480Y-113867849D01*
X169207867Y-113888893D01*
X169193253Y-113908598D01*
X169176777Y-113926777D01*
X169158598Y-113943253D01*
X169138893Y-113957867D01*
X169117849Y-113970480D01*
X169095671Y-113980970D01*
X169072571Y-113989235D01*
X169048773Y-113995196D01*
X169024504Y-113998796D01*
X169000000Y-114000000D01*
X165575000Y-114000000D01*
X165550496Y-113998796D01*
X165526227Y-113995196D01*
X165502429Y-113989235D01*
X165479329Y-113980970D01*
X165457151Y-113970480D01*
X165436107Y-113957867D01*
X165416402Y-113943253D01*
X165398223Y-113926777D01*
X165381747Y-113908598D01*
X165367133Y-113888893D01*
X165354520Y-113867849D01*
X165344030Y-113845671D01*
X165335765Y-113822571D01*
X165329804Y-113798773D01*
X165326204Y-113774504D01*
X165325000Y-113750000D01*
X165325000Y-112650000D01*
X165326204Y-112625496D01*
X165329804Y-112601227D01*
X165335765Y-112577429D01*
X165344030Y-112554329D01*
X165354520Y-112532151D01*
X165367133Y-112511107D01*
X165381747Y-112491402D01*
X165398223Y-112473223D01*
X165416402Y-112456747D01*
X165436107Y-112442133D01*
X165457151Y-112429520D01*
X165479329Y-112419030D01*
X165502429Y-112410765D01*
X165526227Y-112404804D01*
X165550496Y-112401204D01*
X165575000Y-112400000D01*
X169000000Y-112400000D01*
X169024504Y-112401204D01*
G37*
G36*
X138179504Y-112401204D02*
G01*
X138203773Y-112404804D01*
X138227571Y-112410765D01*
X138250671Y-112419030D01*
X138272849Y-112429520D01*
X138293893Y-112442133D01*
X138313598Y-112456747D01*
X138331777Y-112473223D01*
X138348253Y-112491402D01*
X138362867Y-112511107D01*
X138375480Y-112532151D01*
X138385970Y-112554329D01*
X138394235Y-112577429D01*
X138400196Y-112601227D01*
X138403796Y-112625496D01*
X138405000Y-112650000D01*
X138405000Y-113750000D01*
X138403796Y-113774504D01*
X138400196Y-113798773D01*
X138394235Y-113822571D01*
X138385970Y-113845671D01*
X138375480Y-113867849D01*
X138362867Y-113888893D01*
X138348253Y-113908598D01*
X138331777Y-113926777D01*
X138313598Y-113943253D01*
X138293893Y-113957867D01*
X138272849Y-113970480D01*
X138250671Y-113980970D01*
X138227571Y-113989235D01*
X138203773Y-113995196D01*
X138179504Y-113998796D01*
X138155000Y-114000000D01*
X134730000Y-114000000D01*
X134705496Y-113998796D01*
X134681227Y-113995196D01*
X134657429Y-113989235D01*
X134634329Y-113980970D01*
X134612151Y-113970480D01*
X134591107Y-113957867D01*
X134571402Y-113943253D01*
X134553223Y-113926777D01*
X134536747Y-113908598D01*
X134522133Y-113888893D01*
X134509520Y-113867849D01*
X134499030Y-113845671D01*
X134490765Y-113822571D01*
X134484804Y-113798773D01*
X134481204Y-113774504D01*
X134480000Y-113750000D01*
X134480000Y-112650000D01*
X134481204Y-112625496D01*
X134484804Y-112601227D01*
X134490765Y-112577429D01*
X134499030Y-112554329D01*
X134509520Y-112532151D01*
X134522133Y-112511107D01*
X134536747Y-112491402D01*
X134553223Y-112473223D01*
X134571402Y-112456747D01*
X134591107Y-112442133D01*
X134612151Y-112429520D01*
X134634329Y-112419030D01*
X134657429Y-112410765D01*
X134681227Y-112404804D01*
X134705496Y-112401204D01*
X134730000Y-112400000D01*
X138155000Y-112400000D01*
X138179504Y-112401204D01*
G37*
G36*
X144354504Y-112401204D02*
G01*
X144378773Y-112404804D01*
X144402571Y-112410765D01*
X144425671Y-112419030D01*
X144447849Y-112429520D01*
X144468893Y-112442133D01*
X144488598Y-112456747D01*
X144506777Y-112473223D01*
X144523253Y-112491402D01*
X144537867Y-112511107D01*
X144550480Y-112532151D01*
X144560970Y-112554329D01*
X144569235Y-112577429D01*
X144575196Y-112601227D01*
X144578796Y-112625496D01*
X144580000Y-112650000D01*
X144580000Y-113750000D01*
X144578796Y-113774504D01*
X144575196Y-113798773D01*
X144569235Y-113822571D01*
X144560970Y-113845671D01*
X144550480Y-113867849D01*
X144537867Y-113888893D01*
X144523253Y-113908598D01*
X144506777Y-113926777D01*
X144488598Y-113943253D01*
X144468893Y-113957867D01*
X144447849Y-113970480D01*
X144425671Y-113980970D01*
X144402571Y-113989235D01*
X144378773Y-113995196D01*
X144354504Y-113998796D01*
X144330000Y-114000000D01*
X140905000Y-114000000D01*
X140880496Y-113998796D01*
X140856227Y-113995196D01*
X140832429Y-113989235D01*
X140809329Y-113980970D01*
X140787151Y-113970480D01*
X140766107Y-113957867D01*
X140746402Y-113943253D01*
X140728223Y-113926777D01*
X140711747Y-113908598D01*
X140697133Y-113888893D01*
X140684520Y-113867849D01*
X140674030Y-113845671D01*
X140665765Y-113822571D01*
X140659804Y-113798773D01*
X140656204Y-113774504D01*
X140655000Y-113750000D01*
X140655000Y-112650000D01*
X140656204Y-112625496D01*
X140659804Y-112601227D01*
X140665765Y-112577429D01*
X140674030Y-112554329D01*
X140684520Y-112532151D01*
X140697133Y-112511107D01*
X140711747Y-112491402D01*
X140728223Y-112473223D01*
X140746402Y-112456747D01*
X140766107Y-112442133D01*
X140787151Y-112429520D01*
X140809329Y-112419030D01*
X140832429Y-112410765D01*
X140856227Y-112404804D01*
X140880496Y-112401204D01*
X140905000Y-112400000D01*
X144330000Y-112400000D01*
X144354504Y-112401204D01*
G37*
G36*
X111659504Y-112401204D02*
G01*
X111683773Y-112404804D01*
X111707571Y-112410765D01*
X111730671Y-112419030D01*
X111752849Y-112429520D01*
X111773893Y-112442133D01*
X111793598Y-112456747D01*
X111811777Y-112473223D01*
X111828253Y-112491402D01*
X111842867Y-112511107D01*
X111855480Y-112532151D01*
X111865970Y-112554329D01*
X111874235Y-112577429D01*
X111880196Y-112601227D01*
X111883796Y-112625496D01*
X111885000Y-112650000D01*
X111885000Y-113750000D01*
X111883796Y-113774504D01*
X111880196Y-113798773D01*
X111874235Y-113822571D01*
X111865970Y-113845671D01*
X111855480Y-113867849D01*
X111842867Y-113888893D01*
X111828253Y-113908598D01*
X111811777Y-113926777D01*
X111793598Y-113943253D01*
X111773893Y-113957867D01*
X111752849Y-113970480D01*
X111730671Y-113980970D01*
X111707571Y-113989235D01*
X111683773Y-113995196D01*
X111659504Y-113998796D01*
X111635000Y-114000000D01*
X108210000Y-114000000D01*
X108185496Y-113998796D01*
X108161227Y-113995196D01*
X108137429Y-113989235D01*
X108114329Y-113980970D01*
X108092151Y-113970480D01*
X108071107Y-113957867D01*
X108051402Y-113943253D01*
X108033223Y-113926777D01*
X108016747Y-113908598D01*
X108002133Y-113888893D01*
X107989520Y-113867849D01*
X107979030Y-113845671D01*
X107970765Y-113822571D01*
X107964804Y-113798773D01*
X107961204Y-113774504D01*
X107960000Y-113750000D01*
X107960000Y-112650000D01*
X107961204Y-112625496D01*
X107964804Y-112601227D01*
X107970765Y-112577429D01*
X107979030Y-112554329D01*
X107989520Y-112532151D01*
X108002133Y-112511107D01*
X108016747Y-112491402D01*
X108033223Y-112473223D01*
X108051402Y-112456747D01*
X108071107Y-112442133D01*
X108092151Y-112429520D01*
X108114329Y-112419030D01*
X108137429Y-112410765D01*
X108161227Y-112404804D01*
X108185496Y-112401204D01*
X108210000Y-112400000D01*
X111635000Y-112400000D01*
X111659504Y-112401204D01*
G37*
G36*
X117834504Y-112401204D02*
G01*
X117858773Y-112404804D01*
X117882571Y-112410765D01*
X117905671Y-112419030D01*
X117927849Y-112429520D01*
X117948893Y-112442133D01*
X117968598Y-112456747D01*
X117986777Y-112473223D01*
X118003253Y-112491402D01*
X118017867Y-112511107D01*
X118030480Y-112532151D01*
X118040970Y-112554329D01*
X118049235Y-112577429D01*
X118055196Y-112601227D01*
X118058796Y-112625496D01*
X118060000Y-112650000D01*
X118060000Y-113750000D01*
X118058796Y-113774504D01*
X118055196Y-113798773D01*
X118049235Y-113822571D01*
X118040970Y-113845671D01*
X118030480Y-113867849D01*
X118017867Y-113888893D01*
X118003253Y-113908598D01*
X117986777Y-113926777D01*
X117968598Y-113943253D01*
X117948893Y-113957867D01*
X117927849Y-113970480D01*
X117905671Y-113980970D01*
X117882571Y-113989235D01*
X117858773Y-113995196D01*
X117834504Y-113998796D01*
X117810000Y-114000000D01*
X114385000Y-114000000D01*
X114360496Y-113998796D01*
X114336227Y-113995196D01*
X114312429Y-113989235D01*
X114289329Y-113980970D01*
X114267151Y-113970480D01*
X114246107Y-113957867D01*
X114226402Y-113943253D01*
X114208223Y-113926777D01*
X114191747Y-113908598D01*
X114177133Y-113888893D01*
X114164520Y-113867849D01*
X114154030Y-113845671D01*
X114145765Y-113822571D01*
X114139804Y-113798773D01*
X114136204Y-113774504D01*
X114135000Y-113750000D01*
X114135000Y-112650000D01*
X114136204Y-112625496D01*
X114139804Y-112601227D01*
X114145765Y-112577429D01*
X114154030Y-112554329D01*
X114164520Y-112532151D01*
X114177133Y-112511107D01*
X114191747Y-112491402D01*
X114208223Y-112473223D01*
X114226402Y-112456747D01*
X114246107Y-112442133D01*
X114267151Y-112429520D01*
X114289329Y-112419030D01*
X114312429Y-112410765D01*
X114336227Y-112404804D01*
X114360496Y-112401204D01*
X114385000Y-112400000D01*
X117810000Y-112400000D01*
X117834504Y-112401204D01*
G37*
D16*
X133600000Y-97648460D03*
X133600000Y-92190000D03*
X136140000Y-97648460D03*
X136140000Y-92190000D03*
X138680000Y-97648460D03*
X138680000Y-92190000D03*
X123280000Y-97663460D03*
X123280000Y-92205000D03*
X125820000Y-97663460D03*
X125820000Y-92205000D03*
X128360000Y-97663460D03*
X128360000Y-92205000D03*
X113750000Y-97648460D03*
X113750000Y-92190000D03*
X116290000Y-97648460D03*
X116290000Y-92190000D03*
X118830000Y-97648460D03*
X118830000Y-92190000D03*
D10*
X180749000Y-76680000D03*
X184051000Y-76680000D03*
D12*
X153530000Y-73339000D03*
X153530000Y-76641000D03*
D10*
X184051000Y-73686292D03*
X180749000Y-73686292D03*
X165051000Y-75070000D03*
X161749000Y-75070000D03*
X184051000Y-70692586D03*
X180749000Y-70692586D03*
D17*
X165998460Y-81610000D03*
X160540000Y-81610000D03*
X165998460Y-79070000D03*
X160540000Y-79070000D03*
D12*
X147440000Y-73179000D03*
X147440000Y-76481000D03*
D18*
X143415000Y-76850000D03*
X144065000Y-76850000D03*
X144715000Y-76850000D03*
X145365000Y-76850000D03*
X145365000Y-73450000D03*
X144715000Y-73450000D03*
X144065000Y-73450000D03*
X143415000Y-73450000D03*
M02*
